<?xml version="1.0" encoding="utf-8"?>
<!-- Generator: Adobe Illustrator 23.1.1, SVG Export Plug-In . SVG Version: 6.00 Build 0)  -->
<svg version="1.1" id="Слой_1" xmlns="http://www.w3.org/2000/svg" xmlns:xlink="http://www.w3.org/1999/xlink" x="0px" y="0px"
	 width="24px" height="24px" viewBox="0 0 24 24" enable-background="new 0 0 24 24" xml:space="preserve">
<polyline fill="none" stroke="#B51827" stroke-width="2" stroke-linecap="round" stroke-linejoin="round" points="20,12 20,22 4,22
	4,12 "/>
<rect x="2" y="7" fill="none" stroke="#B51827" stroke-width="2" stroke-linecap="round" stroke-linejoin="round" width="20" height="5"/>
<line fill="none" stroke="#B51827" stroke-width="2" stroke-linecap="round" stroke-linejoin="round" x1="12" y1="22" x2="12" y2="7"/>
<path fill="none" stroke="#B51827" stroke-width="2" stroke-linecap="round" stroke-linejoin="round" d="M12,7H7.5
	C6.1,7,5,5.9,5,4.5S6.1,2,7.5,2C11,2,12,7,12,7z"/>
<path fill="none" stroke="#B51827" stroke-width="2" stroke-linecap="round" stroke-linejoin="round" d="M12,7h4.5
	C17.9,7,19,5.9,19,4.5S17.9,2,16.5,2C13,2,12,7,12,7z"/>
	<!--#D34A4A старый цвет-->
</svg>
