<?xml version="1.0" encoding="UTF-8"?>
<svg width="50px" height="50px" viewBox="0 0 50 50" version="1.1" xmlns="http://www.w3.org/2000/svg" xmlns:xlink="http://www.w3.org/1999/xlink">
    <!-- Generator: Sketch 51.2 (57519) - http://www.bohemiancoding.com/sketch -->
    <title>Group 9 Copy</title>
    <desc>Created with Sketch.</desc>
    <defs></defs>
    <g id="Page-1" stroke="none" stroke-width="1" fill="none" fill-rule="evenodd">
        <g id="Group-9-Copy">
            <path d="M25,0 C38.8,0 50,11.2 50,25 C50,38.8 38.8,50 25,50 C11.2,50 0,38.8 0,25 C0,11.2 11.2,0 25,0 Z" id="Shape" fill="#B51827"></path>
            <path d="M25,11 C27.8,11 30,12.1 30,15 L30,25 C30,27.9 27.8,29 25,29 C22.2,29 20,27.9 20,25 L20,15 C20,12.1 22.2,11 25,11 Z M25,9 C20.7,9 18,11.3 18,15 L18,25 C18,28.7 20.7,31 25,31 C29.3,31 32,28.7 32,25 L32,15 C32,11.3 29.3,9 25,9 Z" id="Shape" fill="#FFFFFF" fill-rule="nonzero"></path>
            <rect id="Rectangle-path" fill="#FFFFFF" x="24" y="14" width="2" height="4"></rect>
            <rect id="Rectangle-path-Copy" fill="#FFFFFF" x="24" y="34" width="2" height="7"></rect>
            <polygon id="Shape" fill="#FFFFFF" points="27 40 27 41 26 41 26 42 24 42 24 41 23 41 23 40 22 40 22 39 24 39 24 40 25 40 26 40 26 39 28 39 28 40"></polygon>
        </g>
    </g>
</svg>