<?xml version="1.0" encoding="utf-8"?>
<!-- Generator: Adobe Illustrator 22.1.0, SVG Export Plug-In . SVG Version: 6.00 Build 0)  -->
<svg version="1.1" id="floor" xmlns="http://www.w3.org/2000/svg" xmlns:xlink="http://www.w3.org/1999/xlink" x="0px" y="0px"
	 width="19px" height="15px" viewBox="0 0 19 15" style="enable-background:new 0 0 19 15;" xml:space="preserve">
<style type="text/css">
	.st0{fill:#B51827;}
</style>
<path class="st0" d="M0,0v15h19V0H0z M7,14H1V1h4v7h2V14z M12,14H8V7H6V1h6V14z M18,14h-5V8h5V14z M18,7h-5V1h5V7z"/>
</svg>
