<?xml version="1.0" encoding="utf-8"?>
<!-- Generator: Adobe Illustrator 22.1.0, SVG Export Plug-In . SVG Version: 6.00 Build 0)  -->
<svg version="1.1" id="df_1_" xmlns="http://www.w3.org/2000/svg" xmlns:xlink="http://www.w3.org/1999/xlink" x="0px" y="0px"
	 width="18px" height="18px" viewBox="0 0 18 18" enable-background="new 0 0 18 18" xml:space="preserve">
<path id="df" fill="#4B4B4B" d="M11.1,4.4L6.9,0.2c-0.3-0.3-0.7-0.3-1.1,0L5.1,0.9C5,1.1,5,1.3,5.1,1.5l1.2,1.9c0,0.1,0,0.1-0.1,0.1
	H6.1L4.3,2.3c-0.2-0.1-0.4-0.1-0.6,0L1.9,4.1C1.8,4.3,1.7,4.5,1.8,4.7l0.6,1.1c0,0.1,0,0.1-0.1,0.1H2.3L1.2,5.3
	C1,5.2,0.9,5.2,0.7,5.3L0.2,5.8c-0.4,0.4-0.4,1,0,1.3l0,0l4.1,4.1c0.1-0.1,0.1-0.1,0.1-0.1L11,4.6C11,4.5,11,4.5,11.1,4.4z
	 M16.6,13.2c-1.2-0.6-2.4-1.4-3.5-2.3l-0.1-0.1c-0.6-0.7-0.6-1.7,0-2.3l0.9-1l0,0c0.2-0.2,0.2-0.6,0-0.8l-1.5-1.5l0,0
	c-0.2-0.2-0.6-0.2-0.9,0l-6.5,6.5l0,0c-0.2,0.2-0.2,0.6,0,0.8l0.2,0.2l1.9-1.9c0.2-0.2,0.5-0.2,0.7,0c0.2,0.2,0.2,0.5,0,0.7L6,13.4
	L6.6,14l0,0c0.2,0.2,0.6,0.2,0.9,0l0.9-1L8.5,13c0.7-0.6,1.7-0.5,2.4,0.2l0.3,0.4c0.8,0.9,1.4,2,1.9,3.1c0.4,0.9,1.3,1.4,2.3,1.4
	c0.9,0,1.8-0.5,2.3-1.4C18.4,15.4,17.9,13.9,16.6,13.2z M15.6,16.6c-0.6,0-1-0.5-1-1s0.4-1,1-1c0.6,0,1,0.5,1,1
	C16.6,16.2,16.1,16.6,15.6,16.6z"/>
</svg>
