<?xml version="1.0" encoding="utf-8"?>
<!-- Generator: Adobe Illustrator 22.0.1, SVG Export Plug-In . SVG Version: 6.00 Build 0)  -->
<svg version="1.1" id="Слой_1" xmlns="http://www.w3.org/2000/svg" xmlns:xlink="http://www.w3.org/1999/xlink" x="0px" y="0px"
	 width="8px" height="13px" viewBox="0 0 8 13" style="enable-background:new 0 0 8 13;" xml:space="preserve">
<style type="text/css">
	.st0{fill:#b51827;}
</style>
<title>Artboard 1</title>
<polygon class="st0" points="0.1,1.4 1.5,0 8,6.5 8,6.5 1.5,13 0.1,11.6 5.2,6.5 "/>
</svg>
