<?xml version="1.0" encoding="utf-8"?>
<!-- Generator: Adobe Illustrator 22.1.0, SVG Export Plug-In . SVG Version: 6.00 Build 0)  -->
<svg version="1.1" id="layer" xmlns="http://www.w3.org/2000/svg" xmlns:xlink="http://www.w3.org/1999/xlink" x="0px" y="0px"
	 width="27px" height="27px" viewBox="0 0 27 27" style="enable-background:new 0 0 27 27;" xml:space="preserve">
<style type="text/css">
	.st0{fill-rule:evenodd;clip-rule:evenodd;fill:#101417;}
	.st1{fill-rule:evenodd;clip-rule:evenodd;fill:#FFFFFF;}
</style>
<path class="st0" d="M4,4C9.2-1.3,17.8-1.3,23,4c5.3,5.3,5.3,13.8,0,19.1C17.8,28.3,9.2,28.3,4,23C-1.3,17.8-1.3,9.2,4,4z"/>
<path class="st1" d="M18.5,14H14l0,4.5c0,0.3-0.2,0.5-0.5,0.5c-0.3,0-0.5-0.2-0.5-0.5l0-4.5l-4.5,0C8.2,14,8,13.8,8,13.5
	C8,13.2,8.2,13,8.5,13H13l0-4.5C13,8.2,13.2,8,13.5,8C13.8,8,14,8.2,14,8.5l0,4.5l4.5,0c0.3,0,0.5,0.2,0.5,0.5
	C19,13.8,18.8,14,18.5,14z"/>
</svg>
