<?xml version="1.0" encoding="utf-8"?>
<!-- Generator: Adobe Illustrator 22.1.0, SVG Export Plug-In . SVG Version: 6.00 Build 0)  -->
<svg version="1.1" id="layer" xmlns="http://www.w3.org/2000/svg" xmlns:xlink="http://www.w3.org/1999/xlink" x="0px" y="0px"
	 width="33px" height="33px" viewBox="0 0 33 33" style="enable-background:new 0 0 33 33;" xml:space="preserve">
<style type="text/css">
	.st0{fill-rule:evenodd;clip-rule:evenodd;fill:#101417;}
	.st1{fill-rule:evenodd;clip-rule:evenodd;fill:#FFFFFF;}
</style>
<path class="st0" d="M4.8,4.8c6.4-6.4,16.9-6.4,23.3,0c6.4,6.4,6.4,16.9,0,23.3c-6.4,6.4-16.9,6.4-23.3,0
	C-1.6,21.7-1.6,11.3,4.8,4.8z"/>
<path class="st1" d="M23.5,17H17l0,6.5c0,0.3-0.2,0.5-0.5,0.5c-0.3,0-0.5-0.2-0.5-0.5l0-6.5l-6.5,0C9.2,17,9,16.8,9,16.5
	C9,16.2,9.2,16,9.5,16H16l0-6.5C16,9.2,16.2,9,16.5,9C16.8,9,17,9.2,17,9.5l0,6.5l6.5,0c0.3,0,0.5,0.2,0.5,0.5
	C24,16.8,23.8,17,23.5,17z"/>
</svg>
