<?xml version="1.0" encoding="utf-8"?>
<!-- Generator: Adobe Illustrator 22.0.1, SVG Export Plug-In . SVG Version: 6.00 Build 0)  -->
<svg version="1.1" id="fb" xmlns="http://www.w3.org/2000/svg" xmlns:xlink="http://www.w3.org/1999/xlink" x="0px" y="0px"
	 width="32px" height="32px" viewBox="0 0 32 32" enable-background="new 0 0 32 32" xml:space="preserve">
<path fill-rule="evenodd" clip-rule="evenodd" fill="#3B5998" d="M16,0c8.8,0,16,7.2,16,16s-7.2,16-16,16S0,24.8,0,16S7.2,0,16,0z"
	/>
<path fill="#FFFFFF" d="M19.7,9h-2.1c-2.4,0-4,1.6-4,3.9V15h-2.2c-0.2,0-0.3,0.1-0.3,0.3v2.3c0,0.2,0.1,0.3,0.3,0.3h2.2v6.7
	c0,0.2,0.1,0.3,0.3,0.3h2.9c0.2,0,0.3-0.1,0.3-0.3V18h2.6c0.2,0,0.3-0.1,0.3-0.3v-2.3c0-0.1,0-0.2-0.1-0.2c-0.1,0-0.1-0.1-0.2-0.1
	H17v-1.8c0-0.7,0.2-1.3,1.2-1.3h1.4c0.2,0,0.3-0.1,0.3-0.3V9.3C20,9.1,19.9,9,19.7,9z"/>
</svg>
