<?xml version="1.0" encoding="utf-8"?>
<!-- Generator: Adobe Illustrator 22.0.1, SVG Export Plug-In . SVG Version: 6.00 Build 0)  -->
<svg version="1.1" id="fb" xmlns="http://www.w3.org/2000/svg" xmlns:xlink="http://www.w3.org/1999/xlink" x="0px" y="0px"
	 width="32px" height="32px" viewBox="0 0 32 32" enable-background="new 0 0 32 32" xml:space="preserve">
<path fill-rule="evenodd" clip-rule="evenodd" fill="#FFFFFF" d="M10,13.9l10.2-3.6c0,0,2.5-1.2,1.6,1.6c-0.9,2.8-3.7,10.4-3.7,10.4
	s-0.7,1.7-1.6,0c-0.9-1.7-2.7-4.2-2.7-4.2l-4.3-2.6C9.5,15.5,8.1,14.7,10,13.9z"/>
</svg>
