<?xml version="1.0" encoding="utf-8"?>
<!-- Generator: Adobe Illustrator 22.1.0, SVG Export Plug-In . SVG Version: 6.00 Build 0)  -->
<svg version="1.1" id="Слой_1" xmlns="http://www.w3.org/2000/svg" xmlns:xlink="http://www.w3.org/1999/xlink" x="0px" y="0px"
	 width="8px" height="15px" viewBox="0 0 8 15" enable-background="new 0 0 8 15" xml:space="preserve">
<polygon fill-rule="evenodd" clip-rule="evenodd" fill="#2B2634" points="8,7.3 0.7,0 0,0.7 6.8,7.5 0,14.3 0.7,15 8,7.7 "/>
</svg>
