<svg class="FloorScheme_svg" xmlns="http://www.w3.org/2000/svg">
    <path data-url="/flat.html" data-id="410" class="FloorScheme_flat FloorScheme_flat-3k" d="M184 440L7 440 7 36 5 36 5 5 89 5 89 10 184 10z" />
    <path data-url="/flat.html" data-id="411" class="FloorScheme_flat FloorScheme_flat-1k" d="M191 440L191 226 368 226 368 414 370 414 370 445 287 445 287 440z" />
    <path data-url="/flat.html" data-id="412" class="FloorScheme_flat FloorScheme_flat-2k" d="M375 414L375 226 645 226 645 440 458 440 458 445 373 445 373 414z" />
    <path data-url="/flat.html" data-id="413" class="FloorScheme_flat FloorScheme_flat-disabled" d="M468 10L468 170 482 170 482 219 652 219 652 440 736 440 736 36 738 36 738 5 654 5 654 10z" />
</svg>