<svg xmlns="http://www.w3.org/2000/svg" width="73" height="69" viewBox="0 0 73 69">
    <g fill="#B51827" fill-rule="nonzero">
        <path d="M56.923 37.882c-2.173 2.06-5.65 4.942-11.733 4.942s-9.559-2.883-11.732-4.942c-2.172-1.647-2.607-2.47-4.78-2.47-1.738 0-2.607.412-4.78 2.47-2.172 2.06-5.648 4.942-11.731 4.942-6.084 0-9.56-2.883-11.732-4.942L0 37.471v12.764c1.738.824 3.476 2.06 4.345 3.294C6.518 55.176 6.952 56 9.125 56c1.738 0 2.607-.412 4.78-2.47 2.172-2.06 5.649-4.942 11.732-4.942 6.083 0 9.56 2.883 11.732 4.941C39.542 55.176 39.976 56 42.149 56c2.172 0 2.607-.412 4.78-2.47 2.172-2.06 5.648-4.942 11.732-4.942 6.083 0 9.56 2.883 11.732 4.941.869.824 1.738 1.647 2.607 1.647V41.588c-3.042-.823-4.78-2.47-6.518-4.117C64.31 35.824 63.875 35 61.702 35c-2.172 0-3.041 1.235-4.78 2.882zM62.137 15c-2.173 0-2.607.408-4.78 2.449-2.172 2.04-5.649 4.898-11.732 4.898-6.083 0-9.56-2.857-11.732-4.898C31.72 15.816 31.286 15 29.113 15c-1.738 0-2.607.408-4.78 2.449-2.172 2.04-5.648 4.898-11.732 4.898-6.083 0-9.56-2.857-11.732-4.898L0 16.633v11.836c3.476.817 6.083 2.858 7.387 4.082C9.56 34.184 9.994 35 12.167 35c1.738 0 2.607-.408 4.78-2.449 2.172-2.04 5.648-4.898 11.732-4.898 6.083 0 9.56 2.857 11.732 4.898C42.583 34.184 43.018 35 45.19 35c2.172 0 2.607-.408 4.78-2.449 2.172-2.04 5.648-4.898 11.731-4.898 5.65 0 8.69 2.449 11.298 4.49v-11.02c-2.607-.817-4.345-2.45-6.083-3.674-2.173-2.04-3.042-2.449-4.78-2.449zM7.821 10.484C9.994 12.16 10.43 13 12.601 13c1.738 0 2.607-.42 4.78-2.516 2.173-2.097 5.649-5.032 11.732-5.032 6.083 0 9.56 2.935 11.732 5.032C43.018 12.16 43.452 13 45.625 13s2.607-.42 4.78-2.516c2.172-2.097 5.649-5.032 11.732-5.032 5.214 0 8.69 2.096 10.863 4.193V0H0v5.871c3.476 1.258 6.083 3.355 7.821 4.613zM63.44 58.516C61.268 56.84 60.833 56 58.66 56c-2.172 0-2.606.42-4.779 2.516-2.173 2.097-5.649 5.032-11.732 5.032-6.084 0-9.56-2.935-11.732-5.032C28.244 56.84 27.81 56 25.637 56c-1.738 0-2.607.42-4.78 2.516-2.172 2.097-5.649 5.032-11.732 5.032-4.345 0-6.952-1.258-9.125-2.935V69h73v-5.871c-4.78-.42-7.387-2.935-9.56-4.613z"/>
    </g>
</svg>
