<svg xmlns="http://www.w3.org/2000/svg" width="102" height="537" viewBox="0 0 102 537">
    <path fill="none" fill-rule="evenodd" stroke="#FFF" stroke-width="1.5" d="M15 1l-53 59.443 53 59.442-53 59.444 53 59.443-53 59.446 53 59.444-53 59.443 53 59.447L-38 536M31 1l-53 59.443 53 59.442-53 59.444 53 59.443-53 59.446 53 59.444-53 59.443 53 59.447L-22 536M50 1L-3 60.443l53 59.442-53 59.444 53 59.443-53 59.446 53 59.444-53 59.443 53 59.447L-3 536M66 1L13 60.443l53 59.442-53 59.444 53 59.443-53 59.446 53 59.444-53 59.443 53 59.447L13 536M83 1L30 60.443l53 59.442-53 59.444 53 59.443-53 59.446 53 59.444-53 59.443 53 59.447L30 536M101 1L48 60.443l53 59.442-53 59.444 53 59.443-53 59.446 53 59.444-53 59.443 53 59.447L48 536" opacity=".7"/>
</svg>
