<?xml version="1.0" encoding="UTF-8"?>
<svg width="230px" height="230px" viewBox="0 0 230 230" version="1.1" xmlns="http://www.w3.org/2000/svg" xmlns:xlink="http://www.w3.org/1999/xlink">
    <!-- Generator: sketchtool 51.3 (57544) - http://www.bohemiancoding.com/sketch -->
    <title>5FE232E3-CF95-479B-AA47-6118297B3B69</title>
    <desc>Created with sketchtool.</desc>
    <defs>
        <rect id="path-1" x="0" y="0" width="230" height="230"></rect>
    </defs>
    <g id="Page-1" stroke="none" stroke-width="1" fill="none" fill-rule="evenodd">
        <g id="Апартаменты-в-ЖК-«Нормандия»-Лонгрид-5" transform="translate(-30.000000, -3315.000000)">
            <g id="Stroke-1-Copy-3" transform="translate(145.000000, 3430.000000) scale(-1, 1) translate(-145.000000, -3430.000000) translate(30.000000, 3315.000000)">
                <mask id="mask-2" fill="white">
                    <use xlink:href="#path-1"></use>
                </mask>
                <use id="Mask" fill="#B51827" fill-rule="nonzero" xlink:href="#path-1"></use>
                <path d="M1,-234 L-51,-175.778843 L1,-117.559056 L-51,-59.3378994 L1,-1.11674256 L-51,57.1071539 L1,115.328311 L-51,173.549467 L1,231.774734 L-51,290 M17,-234 L-35,-175.778843 L17,-117.559056 L-35,-59.3378994 L17,-1.11674256 L-35,57.1071539 L17,115.328311 L-35,173.549467 L17,231.774734 L-35,290 M35,-234 L-17,-175.778843 L35,-117.559056 L-17,-59.3378994 L35,-1.11674256 L-17,57.1071539 L35,115.328311 L-17,173.549467 L35,231.774734 L-17,290 M51,-234 L-1,-175.778843 L51,-117.559056 L-1,-59.3378994 L51,-1.11674256 L-1,57.1071539 L51,115.328311 L-1,173.549467 L51,231.774734 L-1,290 M68,-234 L16,-175.778843 L68,-117.559056 L16,-59.3378994 L68,-1.11674256 L16,57.1071539 L68,115.328311 L16,173.549467 L68,231.774734 L16,290 M85,-234 L33,-175.778843 L85,-117.559056 L33,-59.3378994 L85,-1.11674256 L33,57.1071539 L85,115.328311 L33,173.549467 L85,231.774734 L33,290" id="Stroke-1-Copy" stroke="#FFFFFF" stroke-width="1.5" opacity="0.500279018" mask="url(#mask-2)"></path>
                <path d="M101,-234 L49,-175.778843 L101,-117.559056 L49,-59.3378994 L101,-1.11674256 L49,57.1071539 L101,115.328311 L49,173.549467 L101,231.774734 L49,290 M117,-234 L65,-175.778843 L117,-117.559056 L65,-59.3378994 L117,-1.11674256 L65,57.1071539 L117,115.328311 L65,173.549467 L117,231.774734 L65,290 M135,-234 L83,-175.778843 L135,-117.559056 L83,-59.3378994 L135,-1.11674256 L83,57.1071539 L135,115.328311 L83,173.549467 L135,231.774734 L83,290 M151,-234 L99,-175.778843 L151,-117.559056 L99,-59.3378994 L151,-1.11674256 L99,57.1071539 L151,115.328311 L99,173.549467 L151,231.774734 L99,290 M168,-234 L116,-175.778843 L168,-117.559056 L116,-59.3378994 L168,-1.11674256 L116,57.1071539 L168,115.328311 L116,173.549467 L168,231.774734 L116,290 M185,-234 L133,-175.778843 L185,-117.559056 L133,-59.3378994 L185,-1.11674256 L133,57.1071539 L185,115.328311 L133,173.549467 L185,231.774734 L133,290" id="Stroke-1-Copy" stroke="#FFFFFF" stroke-width="1.5" opacity="0.500279018" mask="url(#mask-2)"></path>
                <path d="M203,-234 L151,-175.778843 L203,-117.559056 L151,-59.3378994 L203,-1.11674256 L151,57.1071539 L203,115.328311 L151,173.549467 L203,231.774734 L151,290 M219,-234 L167,-175.778843 L219,-117.559056 L167,-59.3378994 L219,-1.11674256 L167,57.1071539 L219,115.328311 L167,173.549467 L219,231.774734 L167,290 M237,-234 L185,-175.778843 L237,-117.559056 L185,-59.3378994 L237,-1.11674256 L185,57.1071539 L237,115.328311 L185,173.549467 L237,231.774734 L185,290 M253,-234 L201,-175.778843 L253,-117.559056 L201,-59.3378994 L253,-1.11674256 L201,57.1071539 L253,115.328311 L201,173.549467 L253,231.774734 L201,290 M270,-234 L218,-175.778843 L270,-117.559056 L218,-59.3378994 L270,-1.11674256 L218,57.1071539 L270,115.328311 L218,173.549467 L270,231.774734 L218,290 M287,-234 L235,-175.778843 L287,-117.559056 L235,-59.3378994 L287,-1.11674256 L235,57.1071539 L287,115.328311 L235,173.549467 L287,231.774734 L235,290" id="Stroke-1-Copy" stroke="#FFFFFF" stroke-width="1.5" opacity="0.500279018" mask="url(#mask-2)"></path>
            </g>
        </g>
    </g>
</svg>