<svg xmlns="http://www.w3.org/2000/svg" width="447" height="237" viewBox="0 0 447 237">
    <g fill="none" fill-rule="nonzero">
        <g fill="#000">
            <path d="M10.2 151.7c.2 0 .3.1.3.3v4.2l4.4-4.3c.1-.1.3-.2.5-.2h1.7c.3 0 .3.2.1.4l-4.2 4 4.8 6.1c.1.2.1.3-.1.3H16c-.1 0-.2-.1-.3-.2l-3.8-5.2-1.2 1v4.1c0 .2-.1.3-.3.3H9c-.2 0-.3-.1-.3-.3v-4.1l-1.2-1-3.8 5.2c-.1.1-.2.2-.3.2H1.7c-.2 0-.3-.2-.1-.3l4.8-6.1-4.2-4c-.2-.2-.1-.4.1-.4H4c.2 0 .4.1.5.2l4.4 4.3V152c0-.2.1-.3.3-.3h1zM21.2 151.7c.2 0 .3.1.3.3v4.8l-.1 3.2h.1l1.8-2.5 4.3-5.6c.1-.1.3-.2.5-.2h1.2c.2 0 .3.1.3.3v10.3c0 .2-.1.3-.2.3H28c-.2 0-.3-.1-.3-.3v-4.8l.1-3.2h-.1l-1.9 2.7-4.2 5.4c-.1.1-.2.2-.3.2H20c-.2 0-.3-.1-.3-.3V152c0-.2.1-.3.3-.3h1.2zM40.9 162.5c-.2 0-.3-.1-.3-.3v-8.8h-4.2l-.9 6.8c-.2 1.5-1 2.5-2.6 2.5-.9 0-1.4-.2-2.1-1-.1-.1-.1-.2 0-.3l.8-.9c.1-.1.2-.1.3 0 .2.3.6.5.9.5.5 0 .8-.4.9-1l1.1-8.1c0-.1.1-.2.3-.2h7c.2 0 .3.1.3.3v10.3c0 .2-.1.3-.3.3h-1.2v-.1zM46.3 157.1c0 2.2 1.5 3.9 3.8 3.9 2.2 0 3.8-1.6 3.8-3.9 0-2.2-1.5-3.9-3.8-3.9s-3.8 1.7-3.8 3.9m3.7-5.6c3.1 0 5.6 2.3 5.6 5.6 0 3.2-2.5 5.6-5.6 5.6-3.1 0-5.6-2.3-5.6-5.6 0-3.2 2.5-5.6 5.6-5.6M59.6 148.7c-.1-.1 0-.2.1-.3l1-.5c.1 0 .2 0 .3.1.3.6.8.9 1.5.9s1.2-.3 1.5-.9c.1-.1.1-.1.3-.1l1 .5c.1.1.2.1.1.3-.6 1.3-1.5 1.9-2.9 1.9s-2.3-.6-2.9-1.9zm-.5 3c.2 0 .3.1.3.3v4.8l-.1 3.2h.1l1.8-2.5 4.3-5.6c.1-.1.3-.2.5-.2h1.2c.2 0 .3.1.3.3v10.3c0 .2-.1.3-.2.3H66c-.2 0-.3-.1-.3-.3v-4.8l.1-3.2h-.1l-1.9 2.7-4.2 5.4c-.1.1-.2.2-.3.2H58c-.2 0-.3-.1-.3-.3V152c0-.2.1-.3.3-.3h1.1zM76.2 151.7c.2 0 .3.1.3.3v4.8l5.1-4.8c.1-.1.3-.2.6-.2H84c.2 0 .3.2.1.3l-4.8 4.3 5 5.8c.1.1.1.3-.2.3h-1.6c-.2 0-.4-.1-.6-.3l-4-4.7-1.5 1.2v3.5c0 .2-.1.3-.3.3H75c-.2 0-.3-.1-.3-.3V152c0-.2.1-.3.3-.3h1.2zM86.9 157.1c0 2.2 1.5 3.9 3.8 3.9 2.2 0 3.8-1.6 3.8-3.9 0-2.2-1.5-3.9-3.8-3.9s-3.8 1.7-3.8 3.9m3.7-5.6c3.1 0 5.6 2.3 5.6 5.6 0 3.2-2.5 5.6-5.6 5.6-3.1 0-5.6-2.3-5.6-5.6 0-3.2 2.5-5.6 5.6-5.6M110 151.7c.2 0 .3.1.3.3v10.3c0 .2-.1.3-.3.3h-1.3c-.2 0-.3-.1-.3-.3v-4.7l.1-3.1h-.1l-1.6 4-1.8 3.9c-.1.2-.2.3-.4.3h-.8c-.2 0-.3-.1-.4-.3l-1.8-3.9-1.7-4h-.1l.1 3.1v4.7c0 .2-.1.3-.2.3h-1.3c-.2 0-.3-.1-.3-.3V152c0-.2.1-.3.3-.3h1.9c.1 0 .3.1.3.3l2.2 4.9 1.4 3.1h.1l1.5-3.7 2-4.3c.1-.2.2-.3.4-.3h1.8zM121.6 151.7c.2 0 .3.1.3.3v10.3c0 .2-.1.3-.3.3h-1.3c-.2 0-.3-.1-.3-.3v-8.9h-5.6v8.9c0 .2-.1.3-.3.3h-1.3c-.2 0-.3-.1-.3-.3V152c0-.2.1-.3.3-.3h8.8zM133.4 162.5c-.2 0-.3-.1-.3-.3v-8.8h-4.2l-.9 6.8c-.2 1.5-1 2.5-2.6 2.5-.9 0-1.4-.2-2.1-1-.1-.1-.1-.2 0-.3l.8-.9c.1-.1.2-.1.3 0 .2.3.6.5.9.5.5 0 .8-.4.9-1l1.1-8.1c0-.1.1-.2.3-.2h7c.2 0 .3.1.3.3v10.3c0 .2-.1.3-.3.3h-1.2v-.1zM138.7 156.3h7.4c-.2-1.7-1.7-3.1-3.6-3.1-2 0-3.5 1.3-3.8 3.1m3.8-4.8c3.2 0 5.5 2.3 5.5 5.6v.6c0 .2-.1.3-.2.3h-9c.3 1.8 1.7 3 3.8 3 1.4 0 2.4-.4 3.5-1.3.1-.1.2-.1.3.1l.8 1c.1.1.1.3 0 .4-1.4 1.1-2.9 1.6-4.6 1.6-3.4 0-5.7-2.4-5.7-5.6 0-3.3 2.4-5.7 5.6-5.7M151.5 151.7c.2 0 .3.1.3.3v4.8l5.1-4.8c.1-.1.3-.2.6-.2h1.8c.2 0 .3.2.1.3l-4.8 4.3 5 5.8c.1.1.1.3-.2.3h-1.6c-.2 0-.4-.1-.6-.3l-4-4.7-1.5 1.2v3.5c0 .2-.1.3-.3.3h-1.3c-.2 0-.3-.1-.3-.3V152c0-.2.1-.3.3-.3h1.4zM170.5 153.9c.1.1.1.2 0 .3l-.9.7c-.1.1-.3 0-.4-.1-.9-1.1-1.9-1.7-3.2-1.7-2.2 0-3.8 1.7-3.8 3.9s1.6 3.9 3.8 3.9c1.4 0 2.4-.6 3.3-1.7.1-.1.2-.1.3 0l.9.8c.1.1.1.2 0 .3-1.1 1.5-2.8 2.3-4.6 2.3-3.2 0-5.6-2.3-5.6-5.6 0-3.2 2.4-5.6 5.6-5.6 1.8.1 3.5 1 4.6 2.5"/>
        </g>
        <path fill="#BD1C3A" d="M246.6 194.8l17.1-17h-34.1zM268.3 182.2l-17.2 17 17.2 17.1zM246.6 203.7l-18.4 18.4h36.9zM242.2 199.2L223.8 181v36.5z"/>
        <path fill="#BD1C3A" d="M179.4 140.8h44.5v44.3h-44.5zM268.3 192.7h44.5V237h-44.5zM409.7 69l18.6-16.7h-36.9zM396.2 65.7l-9.4-8.6v17.1zM418.4 76.9L431.3 65v-6.4l-16.6 14.9zM409.7 78l-20.5 18.5h40.7zM401.1 70.2l-14.3 13v6.5l18-16.2zM423.4 81.5l7.9 7.2V74.1zM357.2 161.1h44.5v4.3h-44.5zM357.2 170.6h44.5v4.3h-44.5zM357.2 151.8h44.5v4.2h-44.5zM357.2 140.8h44.5v5.5h-44.5zM357.2 180.1h44.5v5h-44.5zM312.6 30.8l8.1-8-8.1-8zM351.9 44.7l-9.5-9.5 12.3-12.4-12.1-12L353.1.4h-10.5l.3.3-10.2 10.1 12.1 12-12.3 12.4 9.2 9.2-.3.3z"/>
        <path fill="#BD1C3A" d="M324 44.7h11.3l-9.6-9.5 12.4-12.4-12.1-12L336.4.4h-11.3l.3.3-10.1 10.1 12.1 12L315 35.2l9.3 9.2zM357.1 3.1l-7.7 7.7 7.7 7.7zM319 .4h-6.4v6.3zM349.1 35.2l8 7.9V27.2zM312.6 39.5v5.2h5.2zM149.6 52.2h44.5v44.3h-44.5z"/>
        <path fill="#BD1C3A" d="M268.2 14.8h44.5v44.3h-44.5zM223.7.1h44.5v44.3h-44.5zM357.1 8h44.5v44.3h-44.5zM345.3 177.8h-8v5.2l8 8.5zM332.6 177.8h-7.9v14.3l7.9-8.6zM337.3 222.1h8v-5.2l-8-8.8zM350 210.3l7.2-8v-10.9l-7.2 7.7zM319.9 191.5v-13.7h-7.2v6zM324.6 210.3l8-8.9v-10.8l-8 8.5zM345.3 198.6l-8-8.6v10.8l8 8.9zM350 192.1l7.2-7.8v-6.5H350zM350 217.5v4.6h7.2v-12.6zM312.7 201.7l7.2 8v-11.1l-7.2-7.8zM319.9 222.1v-5.2l-7.2-8v13.2zM332.6 208.6l-7.9 8.9v4.6h7.9z"/>
        <g fill="#BD1C3A">
            <path d="M214 32c-1.4 1.3-3.4 3.1-7.2 3.1-3.8 0-5.8-1.9-7.2-3.1-1.2-1.1-1.7-1.5-2.9-1.5s-1.7.4-2.9 1.5c-1.3 1.2-3.4 3.1-7.2 3.1-3.8 0-5.8-1.9-7.2-3.1-.1-.1-.2-.1-.3-.2V40c1.2.6 2 1.4 2.7 2 1.2 1.1 1.7 1.5 2.9 1.5s1.7-.4 2.9-1.5c1.3-1.2 3.4-3.1 7.2-3.1 3.8 0 5.8 1.9 7.2 3.1 1.2 1.1 1.7 1.5 2.9 1.5s1.7-.4 2.9-1.5c1.4-1.3 3.4-3.1 7.2-3.1 3.8 0 5.7 1.8 7.2 3.1.6.6 1.1 1 1.5 1.2v-8.6c-1.8-.6-3-1.7-3.9-2.5-1.2-1.1-1.7-1.5-2.9-1.5s-1.7.3-2.9 1.4M217.2 16.8c-1.2 0-1.7.4-2.9 1.5-1.4 1.3-3.4 3.1-7.2 3.1-3.8 0-5.8-1.9-7.2-3.1-1.2-1.1-1.7-1.5-2.9-1.5s-1.7.4-2.9 1.5c-1.3 1.2-3.4 3.1-7.2 3.1-3.8 0-5.8-1.9-7.2-3.1-.2-.2-.4-.3-.6-.5v7.7c2.2.6 3.6 1.9 4.6 2.8 1.2 1.1 1.7 1.5 2.9 1.5s1.7-.4 2.9-1.5c1.3-1.2 3.4-3.1 7.2-3.1 3.8 0 5.8 1.9 7.2 3.1 1.2 1.1 1.7 1.5 2.9 1.5s1.7-.4 2.9-1.5c1.4-1.3 3.4-3.1 7.2-3.1 3.5 0 5.4 1.5 6.8 2.8v-7.3c-1.6-.6-2.8-1.6-3.7-2.4-1.1-1.1-1.6-1.5-2.8-1.5M184.2 14.6c1.2 1.1 1.7 1.5 2.9 1.5s1.7-.4 2.9-1.5c1.3-1.2 3.4-3.1 7.2-3.1 3.8 0 5.8 1.9 7.2 3.1 1.2 1.1 1.7 1.5 2.9 1.5s1.7-.4 2.9-1.5c1.4-1.3 3.4-3.1 7.2-3.1 3.3 0 5.2 1.4 6.6 2.6v-6h-44.5v3.8c2.1.4 3.6 1.7 4.7 2.7M217.9 45.7c-1.2-1.1-1.7-1.5-2.9-1.5s-1.7.4-2.9 1.5c-1.4 1.3-3.4 3.1-7.2 3.1-3.8 0-5.8-1.9-7.2-3.1-1.2-1.1-1.7-1.5-2.9-1.5s-1.7.4-2.9 1.5c-1.3 1.2-3.4 3.1-7.2 3.1-2.6 0-4.3-.9-5.6-1.8v5.3h44.5v-3.6c-2.7-.5-4.4-1.9-5.7-3"/>
        </g>
        <path fill="#BD1C3A" d="M401.6 96.5h44.5v44.3h-44.5z"/>
        <path fill="#000" d="M.9 96.5h400.7v44.3H.9z"/>
        <g fill="#FFF">
            <path d="M14.9 100.4c.6 0 .9.3.9.9V115h19.6v-13.7c0-.6.3-.9 1-.9h4.1c.6 0 .9.3.9.9v34.6c0 .6-.3.9-.9.9h-4.1c-.7 0-1-.3-1-.9v-15.2H15.8v15.2c0 .6-.3.9-.9.9h-4.2c-.6 0-.9-.3-.9-.9v-34.6c0-.6.3-.9.9-.9h4.2zM56.7 118.6c0 7.3 5 12.7 12.4 12.7 7.3 0 12.4-5.4 12.4-12.7 0-7.4-5-12.8-12.4-12.8s-12.4 5.5-12.4 12.8M69 100.3c10.3 0 18.4 7.7 18.4 18.3 0 10.5-8 18.2-18.4 18.2-10.3 0-18.4-7.7-18.4-18.2.1-10.6 8.1-18.3 18.4-18.3M115.8 120.9c4.9 0 7.7-3.1 7.7-7.4 0-4.2-2.8-7.4-7.7-7.4h-11.6v14.8h11.6zm0-20.5c8 0 13.8 5.8 13.8 13 0 7.5-5.8 13.1-13.8 13.1h-11.6v9.4c0 .6-.3.9-.8.9H99c-.6 0-.9-.3-.9-.9v-34.6c0-.6.3-.9.9-.9h16.8zM193.7 123.8H209l-7.3-17.9h-.9l-7.1 17.9zm11.1-23.4c.3 0 .5.1.7.4l15.3 35.1c.2.5-.2.9-.7.9h-4.6c-.7 0-1.1-.3-1.3-.9l-2.7-6.5h-20.2l-2.9 6.7c-.3.5-.6.7-1.1.7h-5c-.6 0-.7-.5-.5-.9l15.5-35.1c.1-.3.4-.5.8-.5h6.7v.1zM234.4 100.3c.6 0 .9.3.9.9V115h19.8v-13.7c0-.6.3-.9 1-.9h4.2c.6 0 .9.3.9.9v34.6c0 .6-.3.9-.9.9h-4.2c-.7 0-1-.3-1-.9v-15.2h-19.8v15.2c0 .6-.3.9-.9.9h-4.2c-.6 0-.9-.3-.9-.9v-34.6c0-.6.3-.9.9-.9h4.2v-.1zM322.1 100.4c.6 0 .9.3.9.9v16.1l-.5 10.8.3.1 6.1-8.4 14.6-18.7c.3-.5.9-.7 1.5-.7h4c.6 0 .9.3.9.9V136c0 .6-.3.9-.8.9H345c-.7 0-1-.3-1-.9v-16.1l.4-10.8-.3-.1-6.5 9.2-14.2 18.2c-.3.4-.7.6-1.1.6H318c-.6 0-.9-.3-.9-.9v-34.6c0-.6.3-.9.9-.9h4.1v-.2zM375.1 105.9c-4.9 0-7.7 3.1-7.7 7.3 0 4.3 2.8 7.4 7.7 7.4h11.6v-14.7h-11.6zm-6.4 19c-4.8-2.1-7.4-6.1-7.4-11.7 0-7.3 5.8-13 13.8-13h16.7c.6 0 .9.3.9.9v34.5c0 .5-.3.9-1 .9h-4.2c-.6 0-.9-.3-.9-.9v-9.3h-12.1l-6 9.3c-.3.5-1 .9-1.6.9h-4.6c-.7 0-1.2-.5-.7-1.1l7.1-10.5z"/>
        </g>
        <path fill="#BD1C3A" d="M134.9 96.5h44.5v44.3h-44.5z"/>
        <g fill="#FFF">
            <path d="M175.3 100.5c.6 0 .8.3.8.8v34.9c0 .5-.2.8-.8.8h-4c-.6 0-.9-.3-.9-.8v-28.4l-10.7 15.7c-.3.5-.7.8-1.2.8H156c-.6 0-.9-.3-1.2-.8L144 107.8v28.4c0 .5-.2.8-.7.8h-3.9c-.6 0-.9-.3-.9-.8v-34.9c0-.5.3-.8.9-.8h5.8c.4 0 .9.3 1.1.7l11.2 16.1h.3l10.8-16.1c.3-.5.7-.8 1.4-.8h5.3v.1zM281.8 127.5l2.8-21.6h13.9v23.9h-17.3c.3-.7.5-1.4.6-2.3zm-5.7 13.4l.2-5.7h26.2l.2 5.7h5.6v-10.3c0-.6-.3-.8-.8-.8h-3.1v-28.4c0-.6-.3-.9-.9-.9h-23.2c-.5 0-.8.3-.8.7l-3.4 25.4c-.3 2-1.4 3.2-2.7 3.2h-2c-.6 0-.8.3-.8.8v10.3h5.5z"/>
        </g>
    </g>
</svg>
