<svg xmlns="http://www.w3.org/2000/svg" width="98" height="101">
  <text font-family="Geometria" fill="#B8B8BA" font-size="12" x="60" y="9.964">Ю</text>
  <text font-family="Geometria" fill="#B8B8BA" font-size="12" x="30" y="100.964">С</text>
  <text font-family="Geometria" fill="#B8B8BA" font-size="12" x="91" y="71.964">З</text>
  <text font-family="Geometria" fill="#B8B8BA" font-size="12" y="37.964">В</text>
  <path fill-rule="evenodd" fill="#EDEDED" d="M56.371 55.585l4.494-2.192-2.192-4.494L84.934 61.68l-28.563-6.095zm1.167-9.012l-1.495-3.067 15.696-4.318-13.066 9.711-1.135-2.326zm-3.687-7.561l-4.494 2.192 12.781-26.261-6.095 28.563-2.192-4.494zM39.47 46.026l2.192 4.494-26.261-12.782 28.563 6.096-4.494 2.192zm.177-17.888l9.71 13.066-5.393 2.63-4.317-15.696zm2.015 22.382l1.597 3.275 1.033 2.118-15.696 4.317 13.066-9.71zm4.822 9.887l4.494-2.192-12.782 26.261 6.096-28.563 2.192 4.494zm-.328-12.079l5.393-2.63 2.63 5.393-5.393 2.63-2.63-5.393zM60.688 71.28l-9.71-13.065 5.393-2.63 4.317 15.695z"/>
  <path fill-rule="evenodd" fill="#F7941E" d="M46.156 48.328l5.393-2.63 2.63 5.393-5.393 2.63-2.63-5.393zm-1.864 7.585l2.192 4.494 4.494-2.192-12.782 26.261 6.096-28.563z"/>
</svg>
